{
    "token": "eyJ0eXAiOiJKV1QiLCJhbGciOiJIUzI1NiIsImN0eSI6InR3aWxpby1mcGE7dj0xIn0.eyJqdGkiOiJTSzU4ZGFhMmI4NmZkMTdkN2JmMjZhY2NjNjU0NTMzYmY4LTE1MjQ5OTQyMjEiLCJpc3MiOiJTSzU4ZGFhMmI4NmZkMTdkN2JmMjZhY2NjNjU0NTMzYmY4Iiwic3ViIjoiQUNhMjI4ZmI0NzkwYjJlNjhkZWJiZmE2MmYzOTQ3NzBmMiIsImV4cCI6MTUyNDk5NzgyMSwiZ3JhbnRzIjp7ImlkZW50aXR5IjoiWCIsInZpZGVvIjp7fX19.gHW7fjY6zU_oa1qqREvARswtWUmtp-Q-XqZ38VlGwHo",
    "roomName": "sseitov"
}
